@startuml
'https://plantuml.com/sequence-diagram

actor User
participant "Api gateway"
participant "Auth service"
participant "Profile service"

User -> "Auth service" : Request /auth/signup
"Auth service" -> "Profile service" : Create user
"Profile service" -> "Auth service" : User created
"Auth service" -> "User" : User created - 201

@enduml
