@startuml
'https://plantuml.com/sequence-diagram

actor User
participant "Api gateway"
participant "Auth service"
participant "Profile service"

User -> "Api gateway" : Request /profile/*

"Api gateway" -> "Auth service" : Auth jwks request
"Auth service" -> "Api gateway" : OK - 200

alt #LightBlue Token is valid
"Api gateway" -> "Profile service" : Request /profile/* with headers from auth

  alt #LightBlue User is authorized
  "Profile service" -> "User" : Success - 2**

  else #Pink Not enough privileges
  "Profile service" -> "User" : Forbidden - 403

  end

else #Pink Token is not valid
"Api gateway" -> User : Unauthorized - 401

end

@enduml
